<?xml version="1.0" encoding="UTF-8" standalone="no"?>
<!-- Created with Inkscape (http://www.inkscape.org/) -->

<svg
   width="120"
   height="120"
   viewBox="0 0 120 120"
   version="1.1"
   id="svg5"
   inkscape:version="1.2.1 (9c6d41e410, 2022-07-14)"
   sodipodi:docname="mcc.svg"
   xmlns:inkscape="http://www.inkscape.org/namespaces/inkscape"
   xmlns:sodipodi="http://sodipodi.sourceforge.net/DTD/sodipodi-0.dtd"
   xmlns:xlink="http://www.w3.org/1999/xlink"
   xmlns="http://www.w3.org/2000/svg"
   xmlns:svg="http://www.w3.org/2000/svg">
  <sodipodi:namedview
     id="namedview7"
     pagecolor="#ffffff"
     bordercolor="#666666"
     borderopacity="1.0"
     inkscape:pageshadow="2"
     inkscape:pageopacity="0.0"
     inkscape:pagecheckerboard="false"
     inkscape:document-units="px"
     showgrid="true"
     showguides="true"
     inkscape:guide-bbox="true"
     inkscape:zoom="2.8958332"
     inkscape:cx="214.27339"
     inkscape:cy="134.15828"
     inkscape:window-width="1647"
     inkscape:window-height="1097"
     inkscape:window-x="260"
     inkscape:window-y="50"
     inkscape:window-maximized="0"
     inkscape:current-layer="layer1"
     inkscape:showpageshadow="2"
     inkscape:deskcolor="#d1d1d1">
    <sodipodi:guide
       position="5.6345044,123.303"
       orientation="1,0"
       id="guide31"
       inkscape:locked="false" />
    <sodipodi:guide
       position="113.37618,122.07747"
       orientation="1,0"
       id="guide33"
       inkscape:locked="false" />
    <sodipodi:guide
       position="-24.647676,60.089955"
       orientation="0,-1"
       id="guide37"
       inkscape:locked="false" />
    <inkscape:grid
       type="xygrid"
       id="grid1291" />
  </sodipodi:namedview>
  <defs
     id="defs2">
    <linearGradient
       id="linearGradient3112"
       y2="11.424"
       xlink:href="#linearGradient2903"
       gradientUnits="userSpaceOnUse"
       x2="12.641"
       gradientTransform="matrix(0.96593,-0.25882,0.25882,0.96593,7.2816,0.75564)"
       y1="35.311001"
       x1="22.965" />
    <linearGradient
       id="linearGradient2903">
      <stop
         id="stop2905"
         stop-color="#888a85"
         offset="0" />
      <stop
         id="stop2907"
         stop-color="#d3d7cf"
         offset="1" />
    </linearGradient>
    <linearGradient
       id="linearGradient3114"
       y2="52.505001"
       xlink:href="#linearGradient2892"
       gradientUnits="userSpaceOnUse"
       x2="17.028"
       gradientTransform="matrix(0.96593,-0.25882,0.25882,0.96593,7.2816,0.75564)"
       y1="7.8708"
       x1="17.413" />
    <linearGradient
       id="linearGradient2892">
      <stop
         id="stop2894"
         stop-color="#fff"
         offset="0" />
      <stop
         id="stop2896"
         stop-color="#fff"
         stop-opacity="0"
         offset="1" />
    </linearGradient>
    <radialGradient
       id="radialGradient3116"
       xlink:href="#linearGradient3198"
       gradientUnits="userSpaceOnUse"
       cy="12"
       cx="31"
       gradientTransform="matrix(0.97747,-0.26191,0.26191,0.97747,-2.4444,8.3897)"
       r="11.125" />
    <linearGradient
       id="linearGradient3198">
      <stop
         id="stop3200"
         offset="0" />
      <stop
         id="stop3202"
         stop-opacity="0"
         offset="1" />
    </linearGradient>
    <linearGradient
       id="linearGradient3118"
       y2="3.4233"
       xlink:href="#linearGradient2895"
       gradientUnits="userSpaceOnUse"
       x2="10.211"
       gradientTransform="matrix(0.90911,-0.24359,0.24359,0.90911,8.6768,1.4171)"
       y1="21.877001"
       x1="21.788" />
    <linearGradient
       id="linearGradient2895">
      <stop
         id="stop2897"
         stop-color="#d3d7cf"
         offset="0" />
      <stop
         id="stop2899"
         stop-color="#888a85"
         offset="1" />
    </linearGradient>
    <linearGradient
       id="linearGradient3120"
       y2="30.757999"
       xlink:href="#linearGradient2892"
       gradientUnits="userSpaceOnUse"
       x2="32.567001"
       gradientTransform="matrix(0.96593,-0.25882,0.25882,0.96593,-4.1168,6.7297)"
       y1="13.971"
       x1="16.488001" />
    <linearGradient
       id="linearGradient3122"
       y2="5.1875"
       xlink:href="#linearGradient2892"
       gradientUnits="userSpaceOnUse"
       x2="17.732"
       gradientTransform="matrix(0.96593,-0.25882,0.25882,0.96593,-4.1168,6.7296)"
       y1="22.795"
       x1="28.357" />
  </defs>
  <g
     inkscape:label="Warstwa 1"
     inkscape:groupmode="layer"
     id="layer1">
    <rect
       style="fill:#35bf5c;stroke-width:0.860708;fill-opacity:1"
       id="rect607"
       width="29.93141"
       height="109.91643"
       x="5.0330558"
       y="4.849165" />
    <rect
       style="fill:#35bf5c;stroke-width:0.867266;fill-opacity:1"
       id="rect609"
       width="30.044893"
       height="109.89627"
       x="85.080414"
       y="5.0499749"
       ry="0" />
    <g
       id="g614"
       transform="matrix(0.97928995,0,0,1.0007163,0.93476489,-0.13688844)"
       style="fill:#35bf5c;fill-opacity:1">
      <rect
         style="fill:#35bf5c;stroke-width:0.867266;fill-opacity:1"
         id="rect611"
         width="30.413078"
         height="109.83056"
         x="45.135807"
         y="5.1267581" />
    </g>
    <g
       id="g670"
       transform="matrix(0.00223709,-1.0124229,1.0007137,0.00236339,-0.1193774,81.051199)"
       style="fill:#35bf5c;fill-opacity:1">
      <rect
         style="fill:#35bf5c;fill-opacity:1;stroke-width:0.867266"
         id="rect668"
         width="30.413078"
         height="109.83056"
         x="45.135807"
         y="5.1267581" />
    </g>
    <path
       id="path5911"
       d="M 74.423354,86.158276 59.205146,112.52383 M 97.250665,46.628982 93.446114,53.210857 M 45.280486,98.599171 51.862361,94.79461 m 59.312979,-34.240968 -6.58188,3.804552 M 40.182386,79.576402 h 7.609104 m 38.045519,0 h 30.436421 m -70.992944,-19.02276 6.581875,3.804552 M 111.17534,98.599171 104.59346,94.79461 M 74.423354,72.994527 59.205146,46.628982 m 38.045519,65.894848 -3.804551,-6.58187 m -15.218208,11.67998 v -7.6091 m 0,-68.481958 v 7.609105 m 0,38.045518 a 7.6091039,7.6091039 0 1 0 0,-15.218207 7.6091043,7.6091043 0 0 0 0,15.218207 z m 0,22.827335 a 30.436426,30.436426 0 1 0 0,-60.872853 30.436426,30.436426 0 0 0 0,60.872853 z"
       style="fill:#008000;stroke:#ffffff;stroke-width:3.80456;stroke-opacity:1" />
  </g>
</svg>
